57 13 4 12 23 37 46 44 46 60 53 46 68 63 81 95 112 116 117 114 154 229 277 227 279 319 394 446 489 568 622 682 804 1076 1148 1083 1211 1343 1541 1802 2109 2361 2732 2924 3276 4688 5008 4871 5630 6449 7309 8348 9527 10671 11995 13410 15238 20760 22933 21779 25272 28972 32629 36794 41491 46876 52633 59447 67263 91360 101482 96431 110698 125773 142781 161127 182463 206058 232258 262441 296514 401252 443870 423907 485966 553891 627530 707744 799133 903063 1016651 1149448 1296780 1758779 1947862 1856503 2132536 2424196 2746980 3102272 3501436 3954373 4460116 5032059 5679891 7707264 8529394 8128476 
21 0 3 5 5 12 24 21 28 41 35 43 49 43 53 61 65 82 111 103 123 158 167 177 200 215 250 278 318 344 413 467 513 678 748 715 811 887 979 1156 1338 1505 1695 1965 2269 3117 3391 3218 3784 4292 4806 5465 6204 7014 7955 9033 10120 14090 15523 14798 17018 19295 22018 24994 28452 31781 35794 40287 45802 61898 68948 65668 75591 85485 96968 108862 124244 139835 157295 177348 200462 271610 301058 286983 329325 374025 424509 479506 541266 610193 688197 777242 876652 1189321 1318048 1256604 1442336 1642042 1856530 2101347 2373604 2677298 3021773 3408545 3842399 5218083 5776985 5507791 
52 8 6 8 14 20 20 20 27 44 35 42 40 33 38 53 58 76 79 71 90 113 139 141 156 169 194 212 212 231 262 340 386 519 543 513 594 648 748 842 945 1044 1185 1397 1521 2051 2267 2219 2514 2833 3232 3633 4018 4628 5169 5794 6572 8770 9711 9249 10541 12120 13856 15769 17978 20154 22877 25875 29305 39570 43683 41917 48007 54299 61242 69138 77841 88377 99549 112359 126519 171803 190650 181419 208463 237203 268362 303391 342640 386375 435224 490856 553839 753182 833163 793292 911478 1036182 1172405 1324212 1495519 1689425 1906668 2150799 2426756 3295210 3649736 3478674 
9 0 0 0 0 0 0 0 0 0 0 0 0 0 0 0 0 0 0 0 0 0 0 0 0 0 0 0 0 0 0 0 0 0 0 0 0 0 0 0 0 0 0 0 0 0 0 0 0 0 0 0 0 0 0 0 0 0 0 0 0 0 0 0 0 0 0 0 0 0 0 0 0 0 0 0 0 0 0 0 0 0 0 0 0 0 0 0 0 0 0 0 0 0 0 0 0 0 0 0 0 0 0 0 0 0 0 0 
