42 7 0 15 22 38 40 51 68 85 98 94 118 115 136 190 200 213 235 302 315 375 429 406 453 527 592 678 725 819 925 1069 1193 1517 1790 1605 1794 2038 2386 2734 3208 3629 4049 4564 5191 7211 7787 7384 8445 9555 11024 12398 13954 15777 17756 19847 22283 30351 33712 31946 36873 41899 47680 53698 60778 68107 76819 87052 98551 132747 147259 139615 160784 182505 206613 233612 262446 296559 335056 379080 426483 578236 641429 611079 
65 4 4 22 21 29 28 27 33 46 57 51 53 45 72 91 95 104 125 131 149 209 212 222 231 269 326 394 488 547 607 698 750 1056 1119 1122 1250 1415 1590 1838 2020 2272 2530 2818 3191 4396 5081 4742 5427 6128 6948 7959 8803 9949 11213 12671 14282 19183 21025 20112 23237 26375 30031 34024 38149 43050 48519 54814 61586 83548 92884 88740 101937 115922 131188 148032 166681 188545 212437 238984 269397 366578 406569 388227 
44 3 11 10 22 26 26 40 38 50 55 57 71 47 56 81 118 128 139 171 221 302 269 270 294 364 463 502 568 655 722 855 1028 1341 1455 1404 1654 1871 2098 2380 2660 3028 3412 3775 4406 5953 6497 6249 7229 8274 9293 10574 11995 13392 15025 16917 19270 25724 28717 27218 30829 35330 40152 44909 50889 57719 64996 73318 82878 112195 123886 117783 135542 154406 174793 197125 223657 252471 284207 319673 360442 488950 539998 515916 
77 4 12 17 34 32 34 38 59 82 86 82 108 95 91 107 131 146 173 208 229 313 386 339 425 466 539 601 638 735 873 967 1084 1432 1678 1571 1835 2004 2279 2628 2931 3312 3762 4201 4813 6332 7049 6800 7647 8725 9800 10872 12530 13982 15884 17967 20319 27752 30435 29099 33333 38211 43386 49013 54862 62246 69946 78783 89116 120672 133514 127547 146422 166233 188520 213077 240168 271343 306190 345656 390576 528319 584857 557154 
