120 4 3 6 7 9 12 11 13 13 15 15 27 19 22 24 23 33 34 36 51 67 75 80 108 106 119 125 134 142 155 164 174 257 302 265 335 416 447 510 607 694 759 863 1030 1361 1478 1434 1605 1833 2135 2397 2711 3118 3483 4004 4391 5881 6543 6157 7103 8067 9253 10389 11651 13139 14996 16734 18851 25934 28453 27139 31164 35306 40054 44872 50794 57733 64942 73438 82849 112256 124013 118326 135821 154340 175036 198492 223743 252250 285837 322068 362718 492265 545115 520705 597135 678680 768072 867379 980527 1105663 1247306 1406637 1588698 2154138 2385440 2275117 
150 8 9 15 19 25 30 33 36 43 51 47 70 58 64 72 92 121 135 141 162 233 223 237 264 283 318 404 411 487 526 632 638 913 1049 967 1112 1273 1493 1681 1935 2152 2455 2689 2984 4164 4521 4364 4980 5544 6311 7153 8191 9341 10493 11773 13424 18159 20152 19249 22105 24768 28118 31758 35571 40166 45085 50480 57241 77494 86464 82166 93905 107246 122131 137750 155669 174867 197296 222703 251341 340449 377721 359976 412538 469866 532183 602016 679343 767088 863051 975779 1099370 1494367 1651784 1573648 1807444 2057059 2329489 2632043 2972809 3352567 3782830 4268138 4819334 6535123 7238530 6896543 
142 9 3 14 20 16 24 25 38 41 41 47 57 54 75 77 81 92 116 154 154 242 241 225 256 288 354 418 476 537 608 750 842 1151 1244 1180 1370 1462 1710 1923 2106 2437 2740 3129 3533 4633 5277 5047 5855 6577 7420 8363 9372 10513 11883 13403 15275 20880 22726 21705 25113 28526 32105 36379 41277 46053 52230 58888 66780 90219 99898 95167 109375 124788 140588 159642 180430 203465 228885 258682 292128 397952 441502 419660 482302 549877 622748 703351 794639 896604 1010552 1140133 1285952 1746923 1933996 1846381 2122190 2412200 2732713 3086628 3482508 3927540 4435425 5004042 5644506 7666649 8487969 8100267 
170 3 16 16 13 24 27 37 33 39 34 40 43 20 36 50 51 63 71 67 71 91 92 102 130 117 147 168 191 207 208 255 281 411 410 409 433 463 522 612 738 792 917 1031 1124 1682 1799 1679 2005 2224 2612 2869 3245 3731 4210 4810 5398 7341 8321 7793 9093 10477 11750 13402 14897 17023 19229 21726 24222 32419 36412 34780 40123 45191 51220 57821 65364 73855 83086 93993 106104 142912 158622 151121 173571 197406 223184 251933 285072 322266 362678 408849 461134 624705 692774 661635 758861 864838 977309 1105445 1248906 1409760 1589801 1795022 2026109 2748341 3041887 2904808 
