124 5 0 15 17 32 35 50 58 74 87 85 103 101 127 169 186 192 217 276 286 332 396 355 395 470 537 618 648 754 844 975 1083 1358 1606 1428 1609 1829 2133 2464 2883 3245 3634 4076 4657 6497 7013 6659 7633 8621 9899 11169 12551 14195 16027 17817 20005 27279 30359 28772 33178 37738 42868 48268 54641 61403 69241 78308 88579 119590 132657 125597 144914 164227 185969 210273 235938 266894 301602 341241 383640 520312 577138 550013 
153 4 3 17 20 27 26 23 29 43 55 47 47 42 64 80 88 93 112 115 138 190 189 197 203 239 292 344 432 480 543 620 689 945 1024 1001 1127 1280 1443 1657 1807 2030 2272 2565 2846 3972 4580 4241 4878 5551 6277 7170 7914 8970 10114 11441 12829 17290 18853 18177 20880 23726 26990 30585 34359 38648 43729 49340 55424 75164 83673 79706 91760 104391 117978 133335 150096 169470 191228 214961 242610 330024 365837 349102 
130 0 8 10 19 22 23 38 34 47 50 49 65 44 54 70 108 110 123 160 199 274 235 233 268 326 424 459 514 584 651 769 933 1203 1294 1277 1479 1704 1902 2135 2385 2731 3074 3396 3952 5352 5843 5648 6477 7443 8389 9553 10817 12041 13535 15277 17343 23169 25853 24536 27771 31782 36135 40423 45756 51817 58542 66017 74556 100991 111537 105982 121914 138889 157201 177455 201389 227480 255932 287785 324609 440466 485948 464554 
159 4 11 16 28 31 32 30 55 72 74 79 99 90 78 92 108 130 152 195 200 291 343 301 379 426 486 540 563 662 774 878 981 1316 1519 1417 1624 1797 2028 2400 2620 2994 3372 3811 4349 5721 6375 6096 6864 7857 8841 9737 11271 12589 14302 16190 18279 24929 27382 26143 29868 34377 39128 44215 49460 56131 62947 70869 80192 108477 120290 114602 131786 149605 169686 191899 216219 244402 275506 311248 351401 475206 526355 501138 
